<?xml version="1.0" encoding="UTF-8"?>
<svg width="500" height="500" version="1.1" viewBox="0 0 132.29 132.29" xmlns="http://www.w3.org/2000/svg">
  <g>
    <rect x="1.1102e-16" y="1.1102e-16" width="132.29" height="132.29" fill="#fff"/>
  </g>
  <g transform="translate(.30852 .66977)" stroke="#000" stroke-linecap="round" stroke-linejoin="round" stroke-width="1.3229">
    <g>
      <path d="m33.692 46.918 64.289 37.117-4e-5 -26.934 10.183-5.8808-3e-5 48.878-74.473-42.997z"/>
      <path d="m108.16 30.854-42.328 24.439 8.8187 5.0915 43.693-25.226z"/>
      <path d="m23.508 30.854-10.278 4.2492 0.09509 60.69 43.693-25.226-8.8194-5.0919-24.69 14.256z"/>
    </g>
    <g fill="#fff">
      <path d="m97.981 73.851-74.473-42.997c5.6e-5 13.685 1.09e-4 26.813 2.02e-4 48.878l10.183-5.8808-4.1e-5 -26.934 64.289 37.118z"/>
      <path d="m108.17 100.1 10.279-4.2497-0.0962-60.69-43.693 25.226 8.8193 5.0919 24.69-14.255z"/>
      <path d="m13.325 95.793 10.183 4.3043 42.328-24.439-8.8184-5.0913z"/>
    </g>
  </g>
  <g display="none">
    <circle cx="66.146" cy="66.146" r="65.881" fill="none" stroke="#000" stroke-linecap="round" stroke-linejoin="round" stroke-width=".52976"/>
  </g>
</svg>
